Info: Generated by version: 18.0 build 219
Info: Starting: Create block symbol file (.bsf)
Info: qsys-generate /hepuser/shroffm2/FPGA/stratix_10_nios_and_ddr3_interface/ip/system/system_timer_0.ip --block-symbol-file --output-directory=/hepuser/shroffm2/FPGA/stratix_10_nios_and_ddr3_interface/ip/system/system_timer_0 --family="Stratix 10" --part=1SG280LU2F50E2VG
Info: qsys-generate succeeded.
Info: Finished: Create block symbol file (.bsf)
Info: 
Info: Starting: Create HDL design files for synthesis
Info: qsys-generate /hepuser/shroffm2/FPGA/stratix_10_nios_and_ddr3_interface/ip/system/system_timer_0.ip --synthesis=VHDL --output-directory=/hepuser/shroffm2/FPGA/stratix_10_nios_and_ddr3_interface/ip/system/system_timer_0 --family="Stratix 10" --part=1SG280LU2F50E2VG
Info: system_timer_0: "Transforming system: system_timer_0"
Info: system_timer_0: Running transform generation_view_transform
Info: system_timer_0: Running transform generation_view_transform took 0.000s
Info: timer_0: Running transform generation_view_transform
Info: timer_0: Running transform generation_view_transform took 0.000s
Info: system_timer_0: Running transform interconnect_transform_chooser
Info: system_timer_0: Running transform interconnect_transform_chooser took 0.008s
Info: system_timer_0: "Naming system components in system: system_timer_0"
Info: system_timer_0: "Processing generation queue"
Info: system_timer_0: "Generating: system_timer_0"
Info: system_timer_0: "Generating: system_timer_0_altera_avalon_timer_180_7h4u3ai"
Info: timer_0: Starting RTL generation for module 'system_timer_0_altera_avalon_timer_180_7h4u3ai'
Info: timer_0:   Generation command is [exec /oldhome/intelFPGA/18.0_old/quartus/linux64//perl/bin/perl -I /oldhome/intelFPGA/18.0_old/quartus/linux64//perl/lib -I /oldhome/intelFPGA/18.0_old/quartus/sopc_builder/bin/europa -I /oldhome/intelFPGA/18.0_old/quartus/sopc_builder/bin/perl_lib -I /oldhome/intelFPGA/18.0_old/quartus/sopc_builder/bin -I /oldhome/intelFPGA/18.0_old/quartus/../ip/altera/sopc_builder_ip/common -I /oldhome/intelFPGA/18.0_old/quartus/../ip/altera/sopc_builder_ip/altera_avalon_timer -- /oldhome/intelFPGA/18.0_old/quartus/../ip/altera/sopc_builder_ip/altera_avalon_timer/generate_rtl.pl --name=system_timer_0_altera_avalon_timer_180_7h4u3ai --dir=/tmp/alt8103_8381804119866599355.dir/0009_timer_0_gen/ --quartus_dir=/oldhome/intelFPGA/18.0_old/quartus --verilog --config=/tmp/alt8103_8381804119866599355.dir/0009_timer_0_gen//system_timer_0_altera_avalon_timer_180_7h4u3ai_component_configuration.pl  --do_build_sim=0  ]
Info: timer_0: Done RTL generation for module 'system_timer_0_altera_avalon_timer_180_7h4u3ai'
Info: system_timer_0: Done "system_timer_0" with 2 modules, 2 files
Info: qsys-generate succeeded.
Info: Finished: Create HDL design files for synthesis
Info: Starting: Generate IP Core Documentation
Info: No documentation filesets were found for components in system_timer_0. No files generated.
Info: Finished: Generate IP Core Documentation
