-- Contents are randomly generated during RTL generation.
WIDTH=23;
DEPTH=64;

ADDRESS_RADIX=HEX;
DATA_RADIX=HEX;

CONTENT BEGIN

00 : 2e281c;
01 : 52fbbc;
02 : 419a4a;
03 : 7e7640;
04 : 3d333e;
05 : 33b15a;
06 : 5a9c4f;
07 : 23ec26;
08 : 0ec71c;
09 : 358836;
0a : 67ff03;
0b : 5f3159;
0c : 34fe92;
0d : 73967a;
0e : 036152;
0f : 6392c1;
10 : 7d91cb;
11 : 49576c;
12 : 697b6b;
13 : 1ffb6a;
14 : 15d248;
15 : 51f904;
16 : 2e4067;
17 : 7c2a14;
18 : 66a8d3;
19 : 54215b;
1a : 7b86c6;
1b : 4c1f66;
1c : 2244d5;
1d : 3d1b39;
1e : 18f373;
1f : 0a2236;
20 : 18d78b;
21 : 17059c;
22 : 42485f;
23 : 47a44a;
24 : 5ba5ed;
25 : 1ec052;
26 : 205998;
27 : 0abb72;
28 : 3437c9;
29 : 757ece;
2a : 5c74e4;
2b : 29de2d;
2c : 303713;
2d : 429e5c;
2e : 4169e0;
2f : 09ec71;
30 : 4a8a25;
31 : 2a5d6b;
32 : 0e75b6;
33 : 4a1826;
34 : 0895f4;
35 : 7af357;
36 : 6acfd5;
37 : 1486ab;
38 : 0e5984;
39 : 22d8d4;
3a : 672df8;
3b : 473f5f;
3c : 3df078;
3d : 24603c;
3e : 03865f;
3f : 548cd0;

END;
