Info: Generated by version: 18.0 build 219
Info: Starting: Create block symbol file (.bsf)
Info: qsys-generate /hepuser/shroffm2/FPGA/stratix_10_nios_and_ddr3_interface/ip/system/system_reset_bridge_0.ip --block-symbol-file --output-directory=/hepuser/shroffm2/FPGA/stratix_10_nios_and_ddr3_interface/ip/system/system_reset_bridge_0 --family="Stratix 10" --part=1SG280LU2F50E2VG
Info: qsys-generate succeeded.
Info: Finished: Create block symbol file (.bsf)
Info: 
Info: Starting: Create HDL design files for synthesis
Info: qsys-generate /hepuser/shroffm2/FPGA/stratix_10_nios_and_ddr3_interface/ip/system/system_reset_bridge_0.ip --synthesis=VHDL --output-directory=/hepuser/shroffm2/FPGA/stratix_10_nios_and_ddr3_interface/ip/system/system_reset_bridge_0 --family="Stratix 10" --part=1SG280LU2F50E2VG
Info: system_reset_bridge_0: "Transforming system: system_reset_bridge_0"
Info: system_reset_bridge_0: Running transform generation_view_transform
Info: system_reset_bridge_0: Running transform generation_view_transform took 0.000s
Info: reset_bridge_0: Running transform generation_view_transform
Info: reset_bridge_0: Running transform generation_view_transform took 0.000s
Info: system_reset_bridge_0: Running transform interconnect_transform_chooser
Info: system_reset_bridge_0: Running transform interconnect_transform_chooser took 0.008s
Info: system_reset_bridge_0: "Naming system components in system: system_reset_bridge_0"
Info: system_reset_bridge_0: "Processing generation queue"
Info: system_reset_bridge_0: "Generating: system_reset_bridge_0"
Info: system_reset_bridge_0: Done "system_reset_bridge_0" with 1 modules, 1 files
Info: qsys-generate succeeded.
Info: Finished: Create HDL design files for synthesis
Info: Starting: Generate IP Core Documentation
Info: No documentation filesets were found for components in system_reset_bridge_0. No files generated.
Info: Finished: Generate IP Core Documentation
