Info: Generated by version: 18.0 build 219
Info: Starting: Create block symbol file (.bsf)
Info: qsys-generate /hepuser/shroffm2/FPGA/stratix_10_nios_and_ddr3_interface/ip/system/system_pio_3.ip --block-symbol-file --output-directory=/hepuser/shroffm2/FPGA/stratix_10_nios_and_ddr3_interface/ip/system/system_pio_3 --family="Stratix 10" --part=1SG280LU2F50E2VG
Info: qsys-generate succeeded.
Info: Finished: Create block symbol file (.bsf)
Info: 
Info: Starting: Create HDL design files for synthesis
Info: qsys-generate /hepuser/shroffm2/FPGA/stratix_10_nios_and_ddr3_interface/ip/system/system_pio_3.ip --synthesis=VHDL --output-directory=/hepuser/shroffm2/FPGA/stratix_10_nios_and_ddr3_interface/ip/system/system_pio_3 --family="Stratix 10" --part=1SG280LU2F50E2VG
Info: system_pio_3: "Transforming system: system_pio_3"
Info: system_pio_3: Running transform generation_view_transform
Info: system_pio_3: Running transform generation_view_transform took 0.000s
Info: pio_3: Running transform generation_view_transform
Info: pio_3: Running transform generation_view_transform took 0.000s
Info: system_pio_3: Running transform interconnect_transform_chooser
Info: system_pio_3: Running transform interconnect_transform_chooser took 0.008s
Info: system_pio_3: "Naming system components in system: system_pio_3"
Info: system_pio_3: "Processing generation queue"
Info: system_pio_3: "Generating: system_pio_3"
Info: system_pio_3: "Generating: system_pio_3_altera_avalon_pio_180_grr62iq"
Info: pio_3: Starting RTL generation for module 'system_pio_3_altera_avalon_pio_180_grr62iq'
Info: pio_3:   Generation command is [exec /oldhome/intelFPGA/18.0_old/quartus/linux64/perl/bin/perl -I /oldhome/intelFPGA/18.0_old/quartus/linux64/perl/lib -I /oldhome/intelFPGA/18.0_old/quartus/sopc_builder/bin/europa -I /oldhome/intelFPGA/18.0_old/quartus/sopc_builder/bin/perl_lib -I /oldhome/intelFPGA/18.0_old/quartus/sopc_builder/bin -I /oldhome/intelFPGA/18.0_old/quartus/../ip/altera/sopc_builder_ip/common -I /oldhome/intelFPGA/18.0_old/quartus/../ip/altera/sopc_builder_ip/altera_avalon_pio -- /oldhome/intelFPGA/18.0_old/quartus/../ip/altera/sopc_builder_ip/altera_avalon_pio/generate_rtl.pl --name=system_pio_3_altera_avalon_pio_180_grr62iq --dir=/tmp/alt8103_8381804119866599355.dir/0003_pio_3_gen/ --quartus_dir=/oldhome/intelFPGA/18.0_old/quartus --verilog --config=/tmp/alt8103_8381804119866599355.dir/0003_pio_3_gen//system_pio_3_altera_avalon_pio_180_grr62iq_component_configuration.pl  --do_build_sim=0  ]
Info: pio_3: Done RTL generation for module 'system_pio_3_altera_avalon_pio_180_grr62iq'
Info: system_pio_3: Done "system_pio_3" with 2 modules, 2 files
Info: qsys-generate succeeded.
Info: Finished: Create HDL design files for synthesis
Info: Starting: Generate IP Core Documentation
Info: No documentation filesets were found for components in system_pio_3. No files generated.
Info: Finished: Generate IP Core Documentation
