:045C0000000000029E
:045C0100000000019E
:045C0200000000019D
:045C03000000000E8F
:045C0400001E84807A
:045C05000000016C2E
:045C06000000001F7B
:045C07000000000099
:045C08000000001E7A
:045C09000000005C3B
:045C0A000000000096
:045C0B000000000095
:045C0C000000000094
:045C0D000000000093
:045C0E000000000092
:045C0F000000000091
:045C10000000000090
:045C1100000000008F
:045C1200000000008E
:045C1300000000008D
:045C1400000000008C
:045C1500000000008B
:045C1600000000008A
:045C1700000248003F
:045C18000000000088
:045C19000000000087
:045C1A000008235605
:045C1B00010A0E0864
:045C1C004809090129
:045C1D0001030F0967
:045C1E000000010180
:045C1F000010010070
:045C20000903033041
:045C2100000000047B
:045C2200000000007E
:045C23000D20E081EF
:045C240000A80000D4
:045C2500000000007B
:045C2600000000007A
:045C27000017D5008D
:045C280000B80404B8
:045C2900015C00C852
:045C2A0000001E78E0
:045C2B000000010470
:045C2C000000000074
:045C2D00000000086B
:045C2E000814040C46
:045C2F00000B0A0953
:045C3000100302015A
:045C31000013121139
:045C32000000000668
:045C33000000000469
:045C3400272800011C
:045C35000000000269
:045C3600102B2A29DC
:045C3700141312111F
:045C3800181716150E
:045C3900231B1A19F6
:045C3A00000025241D
:045C3B000000000065
:045C3C000000090853
:045C3D000000000063
:045C3E0044342414B2
:045C3F007464540431
:045C4000352515846D
:045C4100655505455B
:045C42002B1B85751E
:045C43005B0B4B3B71
:045C4400118B7B6BDA
:045C45001716131209
:045C4600211A1918EE
:045C470027262322C7
:045C4800312A2928AC
:045C49003736333285
:045C4A00413A39386A
:045C4B004746434243
:045C4C00014A494878
:045C4D000706030241
:045C4E00510A0908E6
:045C4F0057565352FF
:045C5000615A5958E4
:045C510067666362BD
:045C5200716A6968A2
:045C5300777673727B
:045C5400817A797860
:045C55008786838239
:045C5600008A8988AF
:045C57000000002425
:045C58000001000245
:045C59000002042819
:045C5A000003000043
:00000001FF
