Info: Generated by version: 18.0 build 219
Info: Starting: Create block symbol file (.bsf)
Info: qsys-generate /hepuser/shroffm2/FPGA/stratix_10_nios_and_ddr3_interface/ip/system/system_jtag_uart_0.ip --block-symbol-file --output-directory=/hepuser/shroffm2/FPGA/stratix_10_nios_and_ddr3_interface/ip/system/system_jtag_uart_0 --family="Stratix 10" --part=1SG280LU2F50E2VG
Info: system_jtag_uart_0.jtag_uart_0: JTAG UART IP input clock need to be at least double (2x) the operating frequency of JTAG TCK on board
Info: qsys-generate succeeded.
Info: Finished: Create block symbol file (.bsf)
Info: 
Info: Starting: Create HDL design files for synthesis
Info: qsys-generate /hepuser/shroffm2/FPGA/stratix_10_nios_and_ddr3_interface/ip/system/system_jtag_uart_0.ip --synthesis=VHDL --output-directory=/hepuser/shroffm2/FPGA/stratix_10_nios_and_ddr3_interface/ip/system/system_jtag_uart_0 --family="Stratix 10" --part=1SG280LU2F50E2VG
Info: system_jtag_uart_0.jtag_uart_0: JTAG UART IP input clock need to be at least double (2x) the operating frequency of JTAG TCK on board
Info: system_jtag_uart_0: "Transforming system: system_jtag_uart_0"
Info: system_jtag_uart_0: Running transform generation_view_transform
Info: system_jtag_uart_0: Running transform generation_view_transform took 0.001s
Info: jtag_uart_0: Running transform generation_view_transform
Info: jtag_uart_0: Running transform generation_view_transform took 0.000s
Info: system_jtag_uart_0: Running transform interconnect_transform_chooser
Info: system_jtag_uart_0: Running transform interconnect_transform_chooser took 0.058s
Info: system_jtag_uart_0: "Naming system components in system: system_jtag_uart_0"
Info: system_jtag_uart_0: "Processing generation queue"
Info: system_jtag_uart_0: "Generating: system_jtag_uart_0"
Info: system_jtag_uart_0: "Generating: system_jtag_uart_0_altera_avalon_jtag_uart_180_5ou7o7a"
Info: jtag_uart_0: Starting RTL generation for module 'system_jtag_uart_0_altera_avalon_jtag_uart_180_5ou7o7a'
Info: jtag_uart_0:   Generation command is [exec /oldhome/intelFPGA/18.0_old/quartus/linux64/perl/bin/perl -I /oldhome/intelFPGA/18.0_old/quartus/linux64/perl/lib -I /oldhome/intelFPGA/18.0_old/quartus/sopc_builder/bin/europa -I /oldhome/intelFPGA/18.0_old/quartus/sopc_builder/bin/perl_lib -I /oldhome/intelFPGA/18.0_old/quartus/sopc_builder/bin -I /oldhome/intelFPGA/18.0_old/quartus/../ip/altera/sopc_builder_ip/common -I /oldhome/intelFPGA/18.0_old/quartus/../ip/altera/sopc_builder_ip/altera_avalon_jtag_uart -- /oldhome/intelFPGA/18.0_old/quartus/../ip/altera/sopc_builder_ip/altera_avalon_jtag_uart/generate_rtl.pl --name=system_jtag_uart_0_altera_avalon_jtag_uart_180_5ou7o7a --dir=/tmp/alt8103_8381804119866599355.dir/0002_jtag_uart_0_gen/ --quartus_dir=/oldhome/intelFPGA/18.0_old/quartus --verilog --config=/tmp/alt8103_8381804119866599355.dir/0002_jtag_uart_0_gen//system_jtag_uart_0_altera_avalon_jtag_uart_180_5ou7o7a_component_configuration.pl  --do_build_sim=0  ]
Info: jtag_uart_0: Done RTL generation for module 'system_jtag_uart_0_altera_avalon_jtag_uart_180_5ou7o7a'
Info: system_jtag_uart_0: Done "system_jtag_uart_0" with 2 modules, 2 files
Info: qsys-generate succeeded.
Info: Finished: Create HDL design files for synthesis
Info: Starting: Generate IP Core Documentation
Info: No documentation filesets were found for components in system_jtag_uart_0. No files generated.
Info: Finished: Generate IP Core Documentation
