Flow report for s10
Fri Jul 26 09:35:33 2019
Quartus Prime Version 18.0.0 Build 219 04/25/2018 SJ Pro Edition


---------------------
; Table of Contents ;
---------------------
  1. Parallel Compilation
  2. Legal Notice
  3. Flow Summary
  4. Flow Settings
  5. Flow Non-Default Global Settings
  6. Flow Elapsed Time
  7. Flow OS Summary
  8. Flow Log



+------------------------------------------+
; Parallel Compilation                     ;
+----------------------------+-------------+
; Processors                 ; Number      ;
+----------------------------+-------------+
; Number detected on machine ; 8           ;
; Maximum allowed            ; 4           ;
;                            ;             ;
; Average used               ; 1.89        ;
; Maximum used               ; 4           ;
;                            ;             ;
; Usage by Processor         ; % Time Used ;
;     Processor 1            ; 100.0%      ;
;     Processors 2-4         ;  29.5%      ;
+----------------------------+-------------+


----------------
; Legal Notice ;
----------------
Copyright (C) 2018  Intel Corporation. All rights reserved.
Your use of Intel Corporation's design tools, logic functions 
and other software and tools, and its AMPP partner logic 
functions, and any output files from any of the foregoing 
(including device programming or simulation files), and any 
associated documentation or information are expressly subject 
to the terms and conditions of the Intel Program License 
Subscription Agreement, the Intel Quartus Prime License Agreement,
the Intel FPGA IP License Agreement, or other applicable license
agreement, including, without limitation, that your use is for
the sole purpose of programming logic devices manufactured by
Intel and sold by Intel or its authorized distributors.  Please
refer to the applicable agreement for further details.



+------------------------------------------------------------------------------+
; Flow Summary                                                                 ;
+---------------------------------+--------------------------------------------+
; Flow Status                     ; Successful - Fri Jul 26 09:35:33 2019      ;
; Quartus Prime Version           ; 18.0.0 Build 219 04/25/2018 SJ Pro Edition ;
; Revision Name                   ; s10                                        ;
; Top-level Entity Name           ; s10                                        ;
; Family                          ; Stratix 10                                 ;
; Device                          ; 1SG280LU2F50E2VG                           ;
; Timing Models                   ; Preliminary                                ;
; Logic utilization (in ALMs)     ; 10,391 / 933,120 ( 1 % )                   ;
; Total dedicated logic registers ; 17836                                      ;
; Total pins                      ; 136 / 1,152 ( 12 % )                       ;
; Total block memory bits         ; 4,156,624 / 240,046,080 ( 2 % )            ;
; Total DSP Blocks                ; 3 / 5,760 ( < 1 % )                        ;
; Total HSSI RX channels          ; 0 / 96 ( 0 % )                             ;
; Total HSSI TX channels          ; 0 / 96 ( 0 % )                             ;
; Total PLLs                      ; 3 / 152 ( 2 % )                            ;
+---------------------------------+--------------------------------------------+


+-----------------------------------------+
; Flow Settings                           ;
+-------------------+---------------------+
; Option            ; Setting             ;
+-------------------+---------------------+
; Start date & time ; 07/26/2019 09:10:17 ;
; Main task         ; Compilation         ;
; Revision Name     ; s10                 ;
+-------------------+---------------------+


+---------------------------------------------------------------------------------------------------------------------------------------------------------------------------------------------------------------------------------------------------------+
; Flow Non-Default Global Settings                                                                                                                                                                                                                        ;
+--------------------------+------------------------------------------------------------------------------------------------------------------------------------+---------------+--------------------------------------------------------+----------------+
; Assignment Name          ; Value                                                                                                                              ; Default Value ; Entity Name                                            ; Section Id     ;
+--------------------------+------------------------------------------------------------------------------------------------------------------------------------+---------------+--------------------------------------------------------+----------------+
; COMPILER_SIGNATURE_ID    ; 79497677821056.156415741711222                                                                                                     ; --            ; --                                                     ; --             ;
; EDA_OUTPUT_DATA_FORMAT   ; Verilog Hdl                                                                                                                        ; --            ; --                                                     ; eda_simulation ;
; EDA_SIMULATION_TOOL      ; ModelSim-Altera (Verilog)                                                                                                          ; <None>        ; --                                                     ; --             ;
; MAX_CORE_JUNCTION_TEMP   ; 100                                                                                                                                ; --            ; --                                                     ; --             ;
; MESSAGE_DISABLE          ; 10036                                                                                                                              ; --            ; altera_emif_io_hmc_ecc                                 ; --             ;
; MESSAGE_DISABLE          ; 14320                                                                                                                              ; --            ; altera_emif_io_hmc_fifo                                ; --             ;
; MIN_CORE_JUNCTION_TEMP   ; 0                                                                                                                                  ; --            ; --                                                     ; --             ;
; MISC_FILE                ; ip/system/system_clock_bridge_0/system_clock_bridge_0.cmp                                                                          ; --            ; --                                                     ; --             ;
; MISC_FILE                ; ip/system/system_clock_bridge_0/../system_clock_bridge_0.ip                                                                        ; --            ; --                                                     ; --             ;
; MISC_FILE                ; ip/system/system_clock_in/system_clock_in.cmp                                                                                      ; --            ; --                                                     ; --             ;
; MISC_FILE                ; ip/system/system_clock_in/../system_clock_in.ip                                                                                    ; --            ; --                                                     ; --             ;
; MISC_FILE                ; ip/system/system_emif_s10_0/system_emif_s10_0.cmp                                                                                  ; --            ; --                                                     ; --             ;
; MISC_FILE                ; ip/system/system_emif_s10_0/../system_emif_s10_0.ip                                                                                ; --            ; --                                                     ; --             ;
; MISC_FILE                ; ip/system/system_jtag_uart_0/system_jtag_uart_0.cmp                                                                                ; --            ; --                                                     ; --             ;
; MISC_FILE                ; ip/system/system_jtag_uart_0/../system_jtag_uart_0.ip                                                                              ; --            ; --                                                     ; --             ;
; MISC_FILE                ; ip/system/system_nios2_gen2_0/system_nios2_gen2_0.cmp                                                                              ; --            ; --                                                     ; --             ;
; MISC_FILE                ; ip/system/system_nios2_gen2_0/../system_nios2_gen2_0.ip                                                                            ; --            ; --                                                     ; --             ;
; MISC_FILE                ; ip/system/system_onchip_memory2_0/system_onchip_memory2_0.cmp                                                                      ; --            ; --                                                     ; --             ;
; MISC_FILE                ; ip/system/system_onchip_memory2_0/../system_onchip_memory2_0.ip                                                                    ; --            ; --                                                     ; --             ;
; MISC_FILE                ; ip/system/system_pio_0/system_pio_0.cmp                                                                                            ; --            ; --                                                     ; --             ;
; MISC_FILE                ; ip/system/system_pio_0/../system_pio_0.ip                                                                                          ; --            ; --                                                     ; --             ;
; MISC_FILE                ; ip/system/system_pio_1/system_pio_1.cmp                                                                                            ; --            ; --                                                     ; --             ;
; MISC_FILE                ; ip/system/system_pio_1/../system_pio_1.ip                                                                                          ; --            ; --                                                     ; --             ;
; MISC_FILE                ; ip/system/system_pio_2/system_pio_2.cmp                                                                                            ; --            ; --                                                     ; --             ;
; MISC_FILE                ; ip/system/system_pio_2/../system_pio_2.ip                                                                                          ; --            ; --                                                     ; --             ;
; MISC_FILE                ; ip/system/system_pio_3/system_pio_3.cmp                                                                                            ; --            ; --                                                     ; --             ;
; MISC_FILE                ; ip/system/system_pio_3/../system_pio_3.ip                                                                                          ; --            ; --                                                     ; --             ;
; MISC_FILE                ; ip/system/system_reset_bridge_0/system_reset_bridge_0.cmp                                                                          ; --            ; --                                                     ; --             ;
; MISC_FILE                ; ip/system/system_reset_bridge_0/../system_reset_bridge_0.ip                                                                        ; --            ; --                                                     ; --             ;
; MISC_FILE                ; ip/system/system_reset_in/system_reset_in.cmp                                                                                      ; --            ; --                                                     ; --             ;
; MISC_FILE                ; ip/system/system_reset_in/../system_reset_in.ip                                                                                    ; --            ; --                                                     ; --             ;
; MISC_FILE                ; ip/system/system_sysid_qsys_0/system_sysid_qsys_0.cmp                                                                              ; --            ; --                                                     ; --             ;
; MISC_FILE                ; ip/system/system_sysid_qsys_0/../system_sysid_qsys_0.ip                                                                            ; --            ; --                                                     ; --             ;
; MISC_FILE                ; ip/system/system_timer_0/system_timer_0.cmp                                                                                        ; --            ; --                                                     ; --             ;
; MISC_FILE                ; ip/system/system_timer_0/../system_timer_0.ip                                                                                      ; --            ; --                                                     ; --             ;
; MISC_FILE                ; system/system.cmp                                                                                                                  ; --            ; --                                                     ; --             ;
; MISC_FILE                ; system/../system.qsys                                                                                                              ; --            ; --                                                     ; --             ;
; PROJECT_OUTPUT_DIRECTORY ; output_files                                                                                                                       ; --            ; --                                                     ; --             ;
; SDC_ENTITY_FILE          ; system/altera_avalon_st_handshake_clock_crosser_180/synth/altera_avalon_st_handshake_clock_crosser.sdc                             ; --            ; altera_avalon_st_handshake_clock_crosser               ; --             ;
; SDC_ENTITY_FILE          ; system/altera_reset_controller_180/synth/altera_reset_controller.sdc                                                               ; --            ; altera_reset_controller                                ; --             ;
; SDC_ENTITY_FILE          ; ip/system/system_emif_s10_0/altera_emif_arch_nd_180/synth/system_emif_s10_0_altera_emif_arch_nd_180_wch4y5y.sdc                    ; --            ; system_emif_s10_0_altera_emif_arch_nd_180_wch4y5y      ; --             ;
; SDC_ENTITY_FILE          ; ip/system/system_nios2_gen2_0/altera_nios2_gen2_unit_180/synth/system_nios2_gen2_0_altera_nios2_gen2_unit_180_ngqlbki.sdc          ; --            ; system_nios2_gen2_0_altera_nios2_gen2_unit_180_ngqlbki ; --             ;
; SLD_FILE                 ; ip/system/system_jtag_uart_0/system_jtag_uart_0.regmap                                                                             ; --            ; --                                                     ; --             ;
; SLD_FILE                 ; ip/system/system_pio_0/system_pio_0.regmap                                                                                         ; --            ; --                                                     ; --             ;
; SLD_FILE                 ; ip/system/system_pio_1/system_pio_1.regmap                                                                                         ; --            ; --                                                     ; --             ;
; SLD_FILE                 ; ip/system/system_pio_2/system_pio_2.regmap                                                                                         ; --            ; --                                                     ; --             ;
; SLD_FILE                 ; ip/system/system_pio_3/system_pio_3.regmap                                                                                         ; --            ; --                                                     ; --             ;
; SLD_FILE                 ; ip/system/system_sysid_qsys_0/system_sysid_qsys_0.regmap                                                                           ; --            ; --                                                     ; --             ;
; SLD_FILE                 ; ip/system/system_timer_0/system_timer_0.regmap                                                                                     ; --            ; --                                                     ; --             ;
; SLD_FILE                 ; system/system.regmap                                                                                                               ; --            ; --                                                     ; --             ;
; SLD_INFO                 ; QSYS_NAME system HAS_SOPCINFO 1 GENERATION_ID 0                                                                                    ; --            ; system                                                 ; --             ;
; SLD_INFO                 ; QSYS_NAME system_clock_bridge_0 HAS_SOPCINFO 1 GENERATION_ID 0                                                                     ; --            ; system_clock_bridge_0                                  ; --             ;
; SLD_INFO                 ; QSYS_NAME system_clock_in HAS_SOPCINFO 1 GENERATION_ID 0                                                                           ; --            ; system_clock_in                                        ; --             ;
; SLD_INFO                 ; QSYS_NAME system_emif_s10_0 HAS_SOPCINFO 1 GENERATION_ID 0                                                                         ; --            ; system_emif_s10_0                                      ; --             ;
; SLD_INFO                 ; QSYS_NAME system_jtag_uart_0 HAS_SOPCINFO 1 GENERATION_ID 0                                                                        ; --            ; system_jtag_uart_0                                     ; --             ;
; SLD_INFO                 ; QSYS_NAME system_nios2_gen2_0 HAS_SOPCINFO 1 GENERATION_ID 0                                                                       ; --            ; system_nios2_gen2_0                                    ; --             ;
; SLD_INFO                 ; QSYS_NAME system_onchip_memory2_0 HAS_SOPCINFO 1 GENERATION_ID 0                                                                   ; --            ; system_onchip_memory2_0                                ; --             ;
; SLD_INFO                 ; QSYS_NAME system_pio_0 HAS_SOPCINFO 1 GENERATION_ID 0                                                                              ; --            ; system_pio_0                                           ; --             ;
; SLD_INFO                 ; QSYS_NAME system_pio_1 HAS_SOPCINFO 1 GENERATION_ID 0                                                                              ; --            ; system_pio_1                                           ; --             ;
; SLD_INFO                 ; QSYS_NAME system_pio_2 HAS_SOPCINFO 1 GENERATION_ID 0                                                                              ; --            ; system_pio_2                                           ; --             ;
; SLD_INFO                 ; QSYS_NAME system_pio_3 HAS_SOPCINFO 1 GENERATION_ID 0                                                                              ; --            ; system_pio_3                                           ; --             ;
; SLD_INFO                 ; QSYS_NAME system_reset_bridge_0 HAS_SOPCINFO 1 GENERATION_ID 0                                                                     ; --            ; system_reset_bridge_0                                  ; --             ;
; SLD_INFO                 ; QSYS_NAME system_reset_in HAS_SOPCINFO 1 GENERATION_ID 0                                                                           ; --            ; system_reset_in                                        ; --             ;
; SLD_INFO                 ; QSYS_NAME system_sysid_qsys_0 HAS_SOPCINFO 1 GENERATION_ID 0                                                                       ; --            ; system_sysid_qsys_0                                    ; --             ;
; SLD_INFO                 ; QSYS_NAME system_timer_0 HAS_SOPCINFO 1 GENERATION_ID 0                                                                            ; --            ; system_timer_0                                         ; --             ;
; SOPCINFO_FILE            ; ip/system/system_clock_bridge_0/system_clock_bridge_0.sopcinfo                                                                     ; --            ; --                                                     ; --             ;
; SOPCINFO_FILE            ; ip/system/system_clock_in/system_clock_in.sopcinfo                                                                                 ; --            ; --                                                     ; --             ;
; SOPCINFO_FILE            ; ip/system/system_emif_s10_0/system_emif_s10_0.sopcinfo                                                                             ; --            ; --                                                     ; --             ;
; SOPCINFO_FILE            ; ip/system/system_jtag_uart_0/system_jtag_uart_0.sopcinfo                                                                           ; --            ; --                                                     ; --             ;
; SOPCINFO_FILE            ; ip/system/system_nios2_gen2_0/system_nios2_gen2_0.sopcinfo                                                                         ; --            ; --                                                     ; --             ;
; SOPCINFO_FILE            ; ip/system/system_onchip_memory2_0/system_onchip_memory2_0.sopcinfo                                                                 ; --            ; --                                                     ; --             ;
; SOPCINFO_FILE            ; ip/system/system_pio_0/system_pio_0.sopcinfo                                                                                       ; --            ; --                                                     ; --             ;
; SOPCINFO_FILE            ; ip/system/system_pio_1/system_pio_1.sopcinfo                                                                                       ; --            ; --                                                     ; --             ;
; SOPCINFO_FILE            ; ip/system/system_pio_2/system_pio_2.sopcinfo                                                                                       ; --            ; --                                                     ; --             ;
; SOPCINFO_FILE            ; ip/system/system_pio_3/system_pio_3.sopcinfo                                                                                       ; --            ; --                                                     ; --             ;
; SOPCINFO_FILE            ; ip/system/system_reset_bridge_0/system_reset_bridge_0.sopcinfo                                                                     ; --            ; --                                                     ; --             ;
; SOPCINFO_FILE            ; ip/system/system_reset_in/system_reset_in.sopcinfo                                                                                 ; --            ; --                                                     ; --             ;
; SOPCINFO_FILE            ; ip/system/system_sysid_qsys_0/system_sysid_qsys_0.sopcinfo                                                                         ; --            ; --                                                     ; --             ;
; SOPCINFO_FILE            ; ip/system/system_timer_0/system_timer_0.sopcinfo                                                                                   ; --            ; --                                                     ; --             ;
; SOPCINFO_FILE            ; system/system.sopcinfo                                                                                                             ; --            ; --                                                     ; --             ;
; TCL_ENTITY_FILE          ; ip/system/system_emif_s10_0/altera_emif_arch_nd_180/synth/system_emif_s10_0_altera_emif_arch_nd_180_wch4y5y_ip_parameters.tcl      ; --            ; system_emif_s10_0_altera_emif_arch_nd_180_wch4y5y      ; --             ;
; TCL_ENTITY_FILE          ; ip/system/system_emif_s10_0/altera_emif_arch_nd_180/synth/system_emif_s10_0_altera_emif_arch_nd_180_wch4y5y_utils.tcl              ; --            ; system_emif_s10_0_altera_emif_arch_nd_180_wch4y5y      ; --             ;
; TCL_ENTITY_FILE          ; ip/system/system_emif_s10_0/altera_emif_arch_nd_180/synth/system_emif_s10_0_altera_emif_arch_nd_180_wch4y5y_parameters.tcl         ; --            ; system_emif_s10_0_altera_emif_arch_nd_180_wch4y5y      ; --             ;
; TCL_ENTITY_FILE          ; ip/system/system_emif_s10_0/altera_emif_arch_nd_180/synth/system_emif_s10_0_altera_emif_arch_nd_180_wch4y5y_pin_map.tcl            ; --            ; system_emif_s10_0_altera_emif_arch_nd_180_wch4y5y      ; --             ;
; TCL_ENTITY_FILE          ; ip/system/system_emif_s10_0/altera_emif_arch_nd_180/synth/system_emif_s10_0_altera_emif_arch_nd_180_wch4y5y_report_io_timing.tcl   ; --            ; system_emif_s10_0_altera_emif_arch_nd_180_wch4y5y      ; --             ;
; TCL_ENTITY_FILE          ; ip/system/system_emif_s10_0/altera_emif_arch_nd_180/synth/system_emif_s10_0_altera_emif_arch_nd_180_wch4y5y_report_timing.tcl      ; --            ; system_emif_s10_0_altera_emif_arch_nd_180_wch4y5y      ; --             ;
; TCL_ENTITY_FILE          ; ip/system/system_emif_s10_0/altera_emif_arch_nd_180/synth/system_emif_s10_0_altera_emif_arch_nd_180_wch4y5y_report_timing_core.tcl ; --            ; system_emif_s10_0_altera_emif_arch_nd_180_wch4y5y      ; --             ;
+--------------------------+------------------------------------------------------------------------------------------------------------------------------------+---------------+--------------------------------------------------------+----------------+


+------------------------------------------------------------------------------------------------------------------------+
; Flow Elapsed Time                                                                                                      ;
+--------------------+--------------+-------------------------+---------------------+------------------------------------+
; Module Name        ; Elapsed Time ; Average Processors Used ; Peak Virtual Memory ; Total CPU Time (on all processors) ;
+--------------------+--------------+-------------------------+---------------------+------------------------------------+
; Synthesis          ; 00:02:17     ; 2.6                     ; 2405 MB             ; 00:03:48                           ;
; Fitter             ; 00:19:06     ; 1.2                     ; 22987 MB            ; 00:44:11                           ;
; Timing Analyzer    ; 00:01:09     ; 1.9                     ; 9345 MB             ; 00:01:42                           ;
; Assembler          ; 00:01:53     ; 2.4                     ; 9324 MB             ; 00:04:40                           ;
; EDA Netlist Writer ; 00:00:26     ; 1.0                     ; 6489 MB             ; 00:00:22                           ;
; Total              ; 00:24:51     ; --                      ; --                  ; 00:54:43                           ;
+--------------------+--------------+-------------------------+---------------------+------------------------------------+


+--------------------------------------------------------------------------------------+
; Flow OS Summary                                                                      ;
+--------------------+------------------+----------------+------------+----------------+
; Module Name        ; Machine Hostname ; OS Name        ; OS Version ; Processor type ;
+--------------------+------------------+----------------+------------+----------------+
; Synthesis          ; atlas-lab-002    ; Ubuntu 16.04.6 ; 16         ; x86_64         ;
; Fitter             ; atlas-lab-002    ; Ubuntu 16.04.6 ; 16         ; x86_64         ;
; Timing Analyzer    ; atlas-lab-002    ; Ubuntu 16.04.6 ; 16         ; x86_64         ;
; Assembler          ; atlas-lab-002    ; Ubuntu 16.04.6 ; 16         ; x86_64         ;
; EDA Netlist Writer ; atlas-lab-002    ; Ubuntu 16.04.6 ; 16         ; x86_64         ;
+--------------------+------------------+----------------+------------+----------------+


------------
; Flow Log ;
------------
quartus_syn --read_settings_files=on --write_settings_files=off s10 -c s10
quartus_syn --read_settings_files=on --write_settings_files=off s10 -c s10
quartus_syn --read_settings_files=on --write_settings_files=off s10 -c s10
quartus_fit --read_settings_files=on --write_settings_files=off s10 -c s10
quartus_sta s10 -c s10 --mode=finalize
quartus_asm --read_settings_files=on --write_settings_files=off s10 -c s10
quartus_eda --read_settings_files=on --write_settings_files=off s10 -c s10



